%YAML 1.1
%TAG !u! tag:unity3d.com,2011:
--- !u!78 &1
TagManager:
  serializedVersion: 2
  tags:
  - Teleport
  - SelectedGazeTargetImage
  - SnapZone
  - SnapTransform
  - AudioManager
  - BarcodeMed
  - BarcodePatient
  - Ball
  - ClipboardBarcode
  - ClipboardSpawnPoint
  - SimulationOverMenu
  - ClipboardTextScenario
  - ClipboardTextPatient
  - ClipboardTextRoom
  - ClipboardTextMedicine
  - ClipboardTextSex
  - ClipboardTextAge
  - ClipboardTextWeight
  - ClipboardTextType
  - ClipboardTextAllergies
  - CreditCanvas
  - SyringeEmpty
  - SyringeFull
  - SyringeNoNeedle
  - Needle
  - Flask
  - GazeLabel
  - ClipboardInventory
  - Badge
  layers:
  - Default
  - TransparentFX
  - Ignore Raycast
  - 
  - Water
  - UI
  - 
  - 
  - Ethan
  - MazeWalls
  - MazeTurret
  - MazeTurretBullet
  - Bg
  - FPSWeapon
  - Credits
  - 
  - 
  - 
  - 
  - 
  - 
  - 
  - 
  - 
  - 
  - 
  - 
  - 
  - 
  - 
  - 
  - 
  m_SortingLayers:
  - name: Default
    uniqueID: 0
    locked: 0
  - name: GUI
    uniqueID: 2379361113
    locked: 0
  - name: 
    uniqueID: 2818603083
    locked: 0
